…
h. (2 points) In order to answer the following question, combine the functions `lapply()`, `split()`, `order()`, and `tail()` (or `head()`): What is the largest county in terms of population of each of the states? 

```r
countypop %>%
  split(countypop$abbr) %>%
  lapply(function(state) {
    state[state$pop_2015 %>% order(decreasing = TRUE), c("abbr", "county", "pop_2015")] %>% head(1)
  }) %>%
  bind_rows()
```

```
## # A tibble: 51 × 3
##    abbr  county            pop_2015
##    <chr> <chr>                <dbl>
##  1 AK    Anchorage Munici…   298695
##  2 AL    Jefferson County    660367
##  3 AR    Pulaski County      392664
##  4 AZ    Maricopa County    4167947
##  5 CA    Los Angeles Coun… 10170292
##  6 CO    Denver County       682545
##  7 CT    Fairfield County    948053
##  8 DC    District of Colu…   672228
##  9 DE    New Castle County   556779
## 10 FL    Miami-Dade County  2693117
## # … with 41 more rows
```
…
```
## [1] 1370079
```
j. (2 points) How many people live in each of the states?

```r
countypop %>%
  group_by(abbr) %>%
  summarise("Total Population" = sum(pop_2015))
```

```
## # A tibble: 51 × 2
##    abbr  `Total Population`
##    <chr>              <dbl>
##  1 AK                738432
##  2 AL               4858979
##  3 AR               2978204
##  4 AZ               6828065
##  5 CA              39144818
##  6 CO               5456574
##  7 CT               3590886
##  8 DC                672228
##  9 DE                945934
## 10 FL              20271272
## # … with 41 more rows
```
…
